11 数据包络分析 – mathmodels 包使用手册
…
返回包含 Period、DMU、Malmquist 指数、EC（效率变化）、TC（技术变化）、PECH（纯效率变化）和 SECH（规模效率变化）的数据框。

11.3 DEA 案例

加载包：

library(tidyverse)
library(mathmodels)

案例数据：2011 年各省（市、自治区）医院的部分投入和产出指标。以床位数和卫生技术人员数作为投入，以诊疗人次数和入院人数作为产出，（可选）医疗废弃物作为非期望产出。

df = read_csv("data/hospital.csv")
df

# A tibble: 31 × 6
   DMU   `床位数(万个)` `卫技人员数(万个)` `诊疗人次数(万人次)` `入院人数(万人)`
   <chr>          <dbl>              <dbl>                <dbl>            <dbl>
 1 安徽           14.1               13.3                 6334.            439. 
 2 北京            8.76              12.9                10434.            188. 
 3 福建            8.99               9.39                7206.            309. 
 4 甘肃            6.67               5.31                2772.            171. 
 5 广东           24.6               28.9                29378.            799. 
 6 广西           95.8               10.6                 6445.            326. 
 7 贵州            7.84               6.93                2911.            243. 
 8 海南            2.14               2.63                1269.             61.2
 9 河北           18.8               18.4                 8249.            568. 
10 河南           24.0               23.1                11408.            704. 
# ℹ 21 more rows
# ℹ 1 more variable: `医疗废弃物(万套)` <dbl>
…
合并结果，并计算规模效率（CRS 效率 = VRS 效率 * 规模效率）：

tibble(DMU = df$DMU, ccr_in = ccr_in$efficiencies, 
       ccr_out = ccr_out$efficiencies, 
       bbc_in = bbc_in$efficiencies, 
       bbc_out = bbc_out$efficiencies, 
       sbm_ud_out = sbm_ud_out$efficiencies,
       scale_eff = ccr_in / bbc_in)

# A tibble: 31 × 7
   DMU   ccr_in ccr_out bbc_in bbc_out sbm_ud_out scale_eff
   <chr>  <dbl>   <dbl>  <dbl>   <dbl>      <dbl>     <dbl>
 1 安徽   0.944   0.944  0.955   0.957      0.690     0.989
 2 北京   0.917   0.917  0.918   0.917      0.839     0.999
 3 福建   1.00    1      1.00    1          1.000     1.000
 4 甘肃   0.834   0.834  0.855   0.849      1         0.975
 5 广东   1.000   1      1.00    1          1.000     1.000
 6 广西   0.795   0.795  0.797   0.802      0.847     0.998
 7 贵州   0.963   0.963  0.971   0.970      0.728     0.992
 8 海南   0.833   0.833  0.941   0.932      0.771     0.885
 9 河北   0.904   0.904  0.939   0.945      0.619     0.963
10 河南   0.883   0.883  0.962   0.970      0.841     0.918
# ℹ 21 more rows
…
Capital：总资产（亿元）；

Labor：年平均从业人员（万人）。

产出指标 ：

GIOV：工业总产值（亿元）。

该数据集可评估中国工业部门在“十一五”期间的生产效率变化、技术进步与规模效益。数据结构清晰，适合进行跨期、跨区域的效率比较分析。

dat = read_csv("data/economy.csv")
dat

# A tibble: 155 × 5
   DMUs         Period Capital Labor   GIOV
   <chr>         <dbl>   <dbl> <dbl>  <dbl>
 1 Beijing        2005  12830. 117.   6946.
 2 Tianjin        2005   6348. 122.   6774.
 3 Hebei          2005   9474. 292.  11008.
 4 Shanxi_1       2005   7045. 213.   4851.
 5 Neimenggu      2005   4596.  83.7  2996.
 6 Liaoning       2005  11902. 277.  10815.
 7 Jilin          2005   4507. 102.   3792.
 8 Heilongjiang   2005   5174. 137.   4715.
 9 Shangai        2005  15906. 260.  15768.
10 Jiangsu        2005  25489. 704.  32707.
# ℹ 145 more rows

调用 malmquist() 函数计算 Malmquist 指数及其分解，需要提供长格式数据框，设置日期、投入、产出列，可选提供导向、规模收益假设、参照集、计算方法：

malmquist(dat, period = 2, inputs = 3:4, outputs = 5,
          orientation = "oo", rts = "vrs",
          type1 = "glob", type2 = "rd")

# A tibble: 124 × 7
   Period    DMU             mi    ec    tc  pech  sech
   <chr>     <chr>        <dbl> <dbl> <dbl> <dbl> <dbl>
 1 2005~2006 Beijing      1.18  0.970  1.22 0.970 1.00 
 2 2005~2006 Tianjin      1.22  0.993  1.23 1.00  0.993
 3 2005~2006 Hebei        1.03  0.979  1.05 0.977 1.00 
 4 2005~2006 Shanxi_1     0.969 0.939  1.03 0.935 1.00 
 5 2005~2006 Neimenggu    1.20  0.987  1.22 0.990 0.997
 6 2005~2006 Liaoning     1.13  1.01   1.11 1.01  1.000
 7 2005~2006 Jilin        1.10  0.956  1.15 0.950 1.01 
 8 2005~2006 Heilongjiang 1.05  0.966  1.09 0.963 1.00 
 9 2005~2006 Shangai      1.12  0.990  1.13 1.00  0.990
10 2005~2006 Jiangsu      0.942 0.891  1.06 1     0.891
# ℹ 114 more rows
…
