10 模糊综合评价 – mathmodels 包使用手册
…
第一步，先宽变长变整洁，根据阈值，比如 \([60, 75]\) 离散化为评语：

df = df |>
  pivot_longer(-(1:2), names_to = "评委", values_to = "打分") |>
  mutate(评语 = case_when(打分 < 60 ~ "差",
                          打分 < 75 ~ "一般",
                          .default = "好"),
         评语 = factor(评语, levels = c("差","一般","好")))
df

# A tibble: 120 × 5
      ID 指标  评委    打分 评语 
   <int> <chr> <chr>  <int> <fct>
 1     1 颜色  评委1     97 好   
 2     1 颜色  评委2     66 一般 
 3     1 颜色  评委3     99 好   
 4     1 颜色  评委4     31 差   
 5     1 颜色  评委5     42 差   
 6     1 颜色  评委6     80 好   
 7     1 颜色  评委7     77 好   
 8     1 颜色  评委8     66 一般 
 9     1 颜色  评委9     36 差   
10     1 颜色  评委10    46 差   
# ℹ 110 more rows

第二步，数据统计：分组汇总评语频数，分组计算评语百分比

df = df |>
  count(ID, 指标, 评语) |>
  mutate(p = n / sum(n), .by = c(ID, 指标))
df

# A tibble: 35 × 5
      ID 指标  评语      n     p
   <int> <chr> <fct> <int> <dbl>
 1     1 做工  差        2   0.2
 2     1 做工  一般      7   0.7
 3     1 做工  好        1   0.1
 4     1 品牌  差        6   0.6
 5     1 品牌  一般      3   0.3
 6     1 品牌  好        1   0.1
 7     1 款式  差        3   0.3
 8     1 款式  一般      3   0.3
 9     1 款式  好        4   0.4
10     1 颜色  差        4   0.4
# ℹ 25 more rows
…
第一步，数据处理：宽变长（忽略缺失）、分割列（转化数值）

df = df |>
  pivot_longer(everything(), names_to = "g", values_to = "x", 
               values_drop_na = TRUE) |>
  separate(x, c("x1", "x2"), sep = "−", convert = TRUE) |>
  select(-g)
df

# A tibble: 129 × 2
      x1    x2
   <int> <int>
 1    18    25
 2    18    30
 3    17    30
 4    20    35
 5    15    28
 6    18    25
 7    18    35
 8    19    28
 9    17    30
10    16    30
# ℹ 119 more rows
…
