12 不平等度量 – mathmodels 包使用手册
…
mathmodels 包提供了 gini() 函数按上述步骤计算平均数据的基尼系数，基本语法：

gini(y, pop)

y 和 pop 分别为各分组的人均收入和人口数构成的向量。

12.2.3 案例：批量计算基尼系数

数据整理自国家统计局网站，包含 2014-2023 年全国 31 个省份八个主要行业：“信息业”、“制造业”、“医疗”、“商贸”、“建筑业”、“教育”、“科研”、“金融业”的平均工资和就业人数。

df = readxl::read_excel("data/income.xlsx")
df

# A tibble: 2,480 × 6
   行业   区域  地区   年份 平均工资 就业人数
   <chr>  <chr> <chr> <dbl>    <dbl>    <dbl>
 1 信息业 东部  上海   2014   170174   248000
 2 信息业 东部  上海   2015   183365   254000
 3 信息业 东部  上海   2016   200657   268000
 4 信息业 东部  上海   2017   212063   307000
 5 信息业 东部  上海   2018   232522   356000
 6 信息业 东部  上海   2019   237405   418000
 7 信息业 东部  上海   2020   270619   448000
 8 信息业 东部  上海   2021   303573   507000
 9 信息业 东部  上海   2022   330126   544000
10 信息业 东部  上海   2023   363745   528000
# ℹ 2,470 more rows

1. 每个行业每年份内省份间工资的不平等程度（基尼系数）

就是简单的分组汇总：按 年份 和 行业 分组，每组计算出一个基尼系数值

res = df |> 
  summarise(Gini = gini(平均工资, 就业人数), .by = c(年份, 行业)) 
res 

# A tibble: 80 × 3
    年份 行业    Gini
   <dbl> <chr>  <dbl>
 1  2014 信息业 0.410
 2  2015 信息业 0.432
 3  2016 信息业 0.435
 4  2017 信息业 0.449
 5  2018 信息业 0.457
 6  2019 信息业 0.452
 7  2020 信息业 0.456
 8  2021 信息业 0.477
 9  2022 信息业 0.472
10  2023 信息业 0.483
# ℹ 70 more rows
…
12.2.4 绘制洛伦兹曲线

以“教育”行业 2023 年的数据为例，

edu23 = df |> 
  filter(行业 == "教育", 年份 == "2023")
edu23

# A tibble: 31 × 6
   行业  区域  地区    年份 平均工资 就业人数
   <chr> <chr> <chr>  <dbl>    <dbl>    <dbl>
 1 教育  东部  上海    2023   235503   388000
 2 教育  西部  云南    2023   116750   644000
 3 教育  西部  内蒙古  2023   110236   366000
 4 教育  东部  北京    2023   230965   508000
 5 教育  东北  吉林    2023   100625   346000
 6 教育  西部  四川    2023   116527  1238000
 7 教育  东部  天津    2023   149140   212000
 8 教育  西部  宁夏    2023   111737   112000
 9 教育  中部  安徽    2023   119779   678000
10 教育  东部  山东    2023   124519  1291000
# ℹ 21 more rows
…
