13 区域经济 – mathmodels 包使用手册
…
\(LQ > 1\)：表示该地区在该产业上的专业化程度高于全国平均水平，说明该部门具有比较优势，属于产品输出型产业，是区域经济的主导产业或潜在增长点，具备较强竞争力和发展潜力。

\(LQ = 1\)：表示该地区在该产业上的专业化水平与全国平均水平相当，说明该部门处于一般发展水平，能够满足本区域的基本需求，但未形成明显优势或劣势。

\(LQ < 1\)：表示该地区在该产业上的专业化程度低于全国平均水平，说明该部门竞争力较弱，属于产品输入型产业，依赖外部供给，是区域产业结构调整或转型升级的重点方向。

13.1.2 案例：批量计算区位商

从国家统计局网站搜集 2015-2024 年 31 个省份的 GDP 和第一、二、三产业数据：

dat = readxl::read_excel("data/industry.xlsx")
dat

# A tibble: 310 × 6
    年份 地区      GDP 第一产业 第二产业 第三产业
   <dbl> <chr>   <dbl>    <dbl>    <dbl>    <dbl>
 1  2015 上海   26887      126.    8409.   18353.
 2  2015 云南   14960     2079.    5492.    7389 
 3  2015 内蒙古 12949     1630.    5270.    6049.
 4  2015 北京   24779.     140.    4420.   20219.
 5  2015 吉林   10018     1271.    3838.    4910.
 6  2015 四川   30342     3661    13192.   13489.
 7  2015 天津   10880.     162.    4490.    6228.
 8  2015 宁夏    2579.     237.    1117.    1226.
 9  2015 安徽   23831.    2376.   10838.   10617.
10  2015 山东   55289.    4903.   24815.   25571.
# ℹ 300 more rows
…
同时增加地区列，为了保证后面将“全国”放在各分组的第一行，这里使用一个小技巧，给“全国”拼接上一个 Unicode 最小值字符：str_c(intToUtf8(1), "全国")，这样再排序自然就排在第一位了。

然后，与原始数据合并，并按地区排序：

df = bind_rows(dat, nation) |> 
  group_by(年份) |> 
  arrange(地区, .by_group = TRUE) |> 
  ungroup()
df

# A tibble: 320 × 6
    年份 地区             GDP 第一产业 第二产业 第三产业
   <dbl> <chr>          <dbl>    <dbl>    <dbl>    <dbl>
 1  2015 "\u0001全国" 693642    57768.  298297.  337578.
 2  2015 "上海"        26887      126.    8409.   18353.
 3  2015 "云南"        14960     2079.    5492.    7389 
 4  2015 "内蒙古"      12949     1630.    5270.    6049.
 5  2015 "北京"        24779.     140.    4420.   20219.
 6  2015 "吉林"        10018     1271.    3838.    4910.
 7  2015 "四川"        30342     3661    13192.   13489.
 8  2015 "天津"        10880.     162.    4490.    6228.
 9  2015 "宁夏"         2579.     237.    1117.    1226.
10  2015 "安徽"        23831.    2376.   10838.   10617.
# ℹ 310 more rows

最后，按年份分组计算区位商即可：

LQ(df, 地区, GDP, contains("产业"), .by = 年份)

# A tibble: 310 × 5
    年份 地区   第一产业 第二产业 第三产业
   <dbl> <chr>     <dbl>    <dbl>    <dbl>
 1  2015 上海     0.0560    0.727    1.40 
 2  2015 云南     1.67      0.854    1.01 
 3  2015 内蒙古   1.51      0.946    0.960
 4  2015 北京     0.0680    0.415    1.68 
 5  2015 吉林     1.52      0.891    1.01 
 6  2015 四川     1.45      1.01     0.913
 7  2015 天津     0.179     0.960    1.18 
 8  2015 宁夏     1.10      1.01     0.976
 9  2015 安徽     1.20      1.06     0.915
10  2015 山东     1.06      1.04     0.950
# ℹ 300 more rows
…
若要跨区域比较，可以对 HHI 做标准化：由于不同区域的地区数量（\(n\)）不同，而 HHI 的取值范围是 \([1/n, 1]\)，这会影响跨区域比较的公平性。为此，可进行标准化，将 HHI 转换到 \([0, 1]\) 区间，用 \(0\) （而不是 \(1/n\)）表示完全均匀，\(1\) 表示完全集中： \[
HHI_{norm} = \frac{HHI - 1/n}{1-1/n}
\]

注：原始 HHI 用于比较同一区域下（若干地区）的集中度；标准化 HHI 用于比较不同区域（不同的地区数量）的推荐方式。

13.2.2 案例：批量计算 HHI

使用上一篇的 2014-2023 年全国 31 个省份八个主要行业的平均工资和就业人数数据。

df = readxl::read_excel("data/income.xlsx") 
df

# A tibble: 2,480 × 6
   行业   区域  地区   年份 平均工资 就业人数
   <chr>  <chr> <chr> <dbl>    <dbl>    <dbl>
 1 信息业 东部  上海   2014   170174   248000
 2 信息业 东部  上海   2015   183365   254000
 3 信息业 东部  上海   2016   200657   268000
 4 信息业 东部  上海   2017   212063   307000
 5 信息业 东部  上海   2018   232522   356000
 6 信息业 东部  上海   2019   237405   418000
 7 信息业 东部  上海   2020   270619   448000
 8 信息业 东部  上海   2021   303573   507000
 9 信息业 东部  上海   2022   330126   544000
10 信息业 东部  上海   2023   363745   528000
# ℹ 2,470 more rows

分别针对每年每个行业，计算各个区域的 HHI，再来个长变宽：

df |> 
  summarise(hhi = HHI(就业人数, scaled = TRUE), 
            .by = c(年份, 行业, 区域)) |> 
  pivot_wider(names_from = 区域, values_from = hhi)

# A tibble: 80 × 6
    年份 行业     东部   西部   东北    中部
   <dbl> <chr>   <dbl>  <dbl>  <dbl>   <dbl>
 1  2014 信息业 0.0781 0.0746 0.0481 0.00865
 2  2015 信息业 0.0830 0.0868 0.0539 0.0133 
 3  2016 信息业 0.0821 0.0876 0.0487 0.0236 
 4  2017 信息业 0.0844 0.0952 0.0461 0.0264 
 5  2018 信息业 0.0867 0.0894 0.0543 0.0295 
 6  2019 信息业 0.0860 0.0860 0.0632 0.0472 
 7  2020 信息业 0.0874 0.0922 0.0940 0.0455 
 8  2021 信息业 0.0862 0.0980 0.133  0.0456 
 9  2022 信息业 0.0882 0.104  0.118  0.0426 
10  2023 信息业 0.0874 0.110  0.144  0.0389 
# ℹ 70 more rows
…
一般认为 EG 指数大于 \(0.05\) 时，产业高度集聚，小于 \(0.02\) 时，产业集聚度低。

13.3.2 案例：批量计算 EG 指数

继续使用上面的 2014-2023 年全国 31 个省份八个主要行业的平均工资和就业人数数据。

批量建模，计算每年各行业的 EG 指数：

df |> 
  nest(.by = 年份) |> 
  mutate(model = map(data, \(d) EG(d, 地区, 行业, 就业人数))) |> 
  select(-data) |> 
  unnest(model)

# A tibble: 80 × 3
    年份 行业        EG
   <dbl> <chr>    <dbl>
 1  2014 信息业 -0.0482
 2  2014 制造业 -0.0783
 3  2014 医疗   -0.0380
 4  2014 商贸   -0.0484
 5  2014 建筑业 -0.0574
 6  2014 教育   -0.0354
 7  2014 科研   -0.0345
 8  2014 金融业 -0.0396
 9  2015 信息业 -0.0478
10  2015 制造业 -0.0785
# ℹ 70 more rows
