13 系统评价 – mathmodels 包使用手册
…
library(tidyverse)
library(mathmodels)

使用模拟数据：中国东部沿海地区 8 个省市“科技-经济-生态”系统协调发展研究（2015–2024年）

科技创新子系统：R_D投入强度, 高新技术企业数, 专利授权量

经济发展子系统：GDP总量, 人均可支配收入, 产业结构高级化

生态环境子系统：空气质量优良率, 单位GDP能耗, 绿地覆盖率

cdev = read_csv("data/cdev-sim.csv")
cdev

# A tibble: 80 × 11
   地区   年份 R_D投入强度 高新技术企业数 专利授权量 GDP总量 人均可支配收入
   <chr> <dbl>       <dbl>          <dbl>      <dbl>   <dbl>          <dbl>
 1 上海   2015        3.9            8820       17.7   26881          42655
 2 上海   2016        4.44           9551       18     29300          44731
 3 上海   2017        4.53          10000       20.9   31255          47753
 4 上海   2018        4.44          10406       23.3   33185          50151
 5 上海   2019        4.66          11044       24.3   34222          52690
 6 上海   2020        5.07          11561       26.8   36722          54781
 7 上海   2021        4.78          12146       29.8   38388          57669
 8 上海   2022        5.67          12769       30.9   40910          59499
 9 上海   2023        5.53          13561       33.8   42373          62583
10 上海   2024        5.15          14016       35.7   44758          65044
# ℹ 70 more rows
# ℹ 4 more variables: 产业结构高级化 <dbl>, 空气质量优良率 <dbl>,
#   单位GDP能耗 <dbl>, 绿地覆盖率 <dbl>
…
   R_D投入强度 高新技术企业数     专利授权量        GDP总量 人均可支配收入 
     0.3215465      0.3414780      0.3369755      0.3098166      0.2481369 
产业结构高级化 空气质量优良率    单位GDP能耗     绿地覆盖率 
     0.4420465      0.3934835      0.3515999      0.2549167 

计算三个子系统的综合得分

S = map_dfc(rlt, "s") |> 
  set_names("科技", "经济", "生态")
S = bind_cols(cdev[1:2], S)
S

# A tibble: 80 × 5
   地区   年份  科技  经济  生态
   <chr> <dbl> <dbl> <dbl> <dbl>
 1 上海   2015  36.2  50.2  40.6
 2 上海   2016  41.9  52.7  42.2
 3 上海   2017  45.1  57.9  46.4
 4 上海   2018  46.4  60.7  55.4
 5 上海   2019  49.8  62.9  58.7
 6 上海   2020  55.4  65.8  61.3
 7 上海   2021  55.9  71.1  68.0
 8 上海   2022  64.5  72.8  76.1
 9 上海   2023  66.5  75.2  80.1
10 上海   2024  65.4  77.3  79.8
# ℹ 70 more rows
…
归一化子系统得分

S = S |> 
  mutate(across(3:5, rescale))

按年份分组，分别计算耦合协调度

S |> 
  nest(.by = 年份) |> 
  mutate(model = map(data, \(d) coupling_degree(d, id_cols = "地区"))) |> 
  select(-data) |> 
  unnest(model)

# A tibble: 80 × 5
    年份 地区  coupling  coord coupling_coord
   <dbl> <chr>    <dbl>  <dbl>          <dbl>
 1  2015 上海  0.965    0.466         0.671  
 2  2015 北京  0.953    0.449         0.655  
 3  2015 天津  0.00201  0.0245        0.00701
 4  2015 山东  0.00106  0.0940        0.00998
 5  2015 广东  0.987    0.349         0.587  
 6  2015 江苏  0.786    0.193         0.389  
 7  2015 浙江  0.951    0.302         0.536  
 8  2015 福建  0.000820 0.260         0.0146 
 9  2016 上海  0.970    0.507         0.701  
10  2016 北京  0.971    0.510         0.703  
# ℹ 70 more rows

13.3.3 批量计算障碍度

按年份分组，分别计算二级指标障碍度

res = S |> 
  nest(.by = 年份) |> 
  mutate(model = map(data, \(d) obstacle_degree(d, id_cols = "地区"))) |> 
  select(-data) |> 
  unnest(model)
res

# A tibble: 80 × 5
    年份 地区   科技  经济  生态
   <dbl> <chr> <dbl> <dbl> <dbl>
 1  2015 上海  0.204 0.117 0.213
 2  2015 北京  0.204 0.118 0.229
 3  2015 天津  0.325 0.333 0.317
 4  2015 山东  0.320 0.253 0.333
 5  2015 广东  0.194 0.217 0.240
 6  2015 江苏  0.265 0.227 0.316
 7  2015 浙江  0.265 0.245 0.188
 8  2015 福建  0.333 0.281 0.125
 9  2016 上海  0.180 0.107 0.207
10  2016 北京  0.174 0.108 0.208
# ℹ 70 more rows

若要查看每年 科技 前三大的障碍度

res |> 
  slice_max(科技, n = 3, by = 年份)

# A tibble: 30 × 5
    年份 地区   科技  经济   生态
   <dbl> <chr> <dbl> <dbl>  <dbl>
 1  2015 福建  0.333 0.281 0.125 
 2  2015 天津  0.325 0.333 0.317 
 3  2015 山东  0.320 0.253 0.333 
 4  2016 天津  0.324 0.327 0.313 
 5  2016 福建  0.320 0.280 0.114 
 6  2016 山东  0.304 0.238 0.317 
 7  2017 天津  0.325 0.318 0.294 
 8  2017 山东  0.310 0.223 0.306 
 9  2017 福建  0.289 0.261 0.0979
10  2018 天津  0.304 0.313 0.272 
# ℹ 20 more rows

若要查看每个子系统前三大的障碍度，先宽变长

res |> 
  pivot_longer(科技:生态, names_to = "子系统", values_to = "障碍度") |> 
  slice_max(障碍度, n = 3, by = c(年份, 子系统))

# A tibble: 90 × 4
    年份 地区  子系统 障碍度
   <dbl> <chr> <chr>   <dbl>
 1  2015 福建  科技    0.333
 2  2015 天津  科技    0.325
 3  2015 山东  科技    0.320
 4  2015 天津  经济    0.333
 5  2015 福建  经济    0.281
 6  2015 山东  经济    0.253
 7  2015 山东  生态    0.333
 8  2015 天津  生态    0.317
 9  2015 江苏  生态    0.316
10  2016 天津  科技    0.324
# ℹ 80 more rows
…
